{
    "saveVersion": 1,
    "saveName": "000",
    "characterName": "Unia Nightpool",
    "dateAndTime": {
        "gameTime": 12597427838,
        "realTime": 637374366333212037,
        "$version": "v1"
    },
    "dfuVersion": "0.10.23",
    "$version": "v1"
}