{
    "dictQuestInfo": {

    },
    "listRumorMill": [
        {
            "rumorType": "CommonRumor",
            "listRumorVariants": [
                [
                    {
                        "formatting": "Text",
                        "text": "%fx1 and %fx2 were close allies until that incident at the palace.",
                        "x": 0,
                        "y": 0
                    }
                ]
            ],
            "questID": 0,
            "timeLimit": 611358,
            "faction1": 840,
            "faction2": 216,
            "regionID": -1,
            "flags": 8,
            "type": 100
        },
        {
            "rumorType": "CommonRumor",
            "listRumorVariants": [
                [
                    {
                        "formatting": "Text",
                        "text": "Until recently %fx1 and %fx2 worked together. They just recently severed their alliance.",
                        "x": 0,
                        "y": 0
                    }
                ]
            ],
            "questID": 0,
            "timeLimit": 611358,
            "faction1": 840,
            "faction2": 93,
            "regionID": -1,
            "flags": 8,
            "type": 100
        },
        {
            "rumorType": "CommonRumor",
            "listRumorVariants": [
                [
                    {
                        "formatting": "Text",
                        "text": "I never understood why %fx1 and %fx2 were feuding. Well at least that's over now.",
                        "x": 0,
                        "y": 0
                    }
                ]
            ],
            "questID": 0,
            "timeLimit": 611358,
            "faction1": 840,
            "faction2": 61,
            "regionID": -1,
            "flags": 8,
            "type": 100
        },
        {
            "rumorType": "CommonRumor",
            "listRumorVariants": [
                [
                    {
                        "formatting": "Text",
                        "text": "%fx1 got the short end of the stick in some deal. Now they're out to get %fx2",
                        "x": 0,
                        "y": 0
                    }
                ]
            ],
            "questID": 0,
            "timeLimit": 611358,
            "faction1": 841,
            "faction2": 485,
            "regionID": -1,
            "flags": 8,
            "type": 100
        },
        {
            "rumorType": "CommonRumor",
            "listRumorVariants": [
                [
                    {
                        "formatting": "Text",
                        "text": "%fl1 insulted %fl2 in a missive. Now %fx2 is out to get %fx1.",
                        "x": 0,
                        "y": 0
                    }
                ]
            ],
            "questID": 0,
            "timeLimit": 611358,
            "faction1": 807,
            "faction2": 212,
            "regionID": -1,
            "flags": 8,
            "type": 100
        },
        {
            "rumorType": "CommonRumor",
            "listRumorVariants": [
                [
                    {
                        "formatting": "Text",
                        "text": "Persons of %fx2 are to be",
                        "x": 0,
                        "y": 0
                    },
                    {
                        "formatting": "JustifyCenter",
                        "text": null,
                        "x": 0,
                        "y": 0
                    },
                    {
                        "formatting": "Text",
                        "text": " detained upon sight. -- %nrn",
                        "x": 0,
                        "y": 0
                    },
                    {
                        "formatting": "JustifyCenter",
                        "text": null,
                        "x": 0,
                        "y": 0
                    }
                ]
            ],
            "questID": 0,
            "timeLimit": 611358,
            "faction1": 199,
            "faction2": 91,
            "regionID": 9,
            "flags": 1,
            "type": 27
        },
        {
            "rumorType": "CommonRumor",
            "listRumorVariants": [
                [
                    {
                        "formatting": "Text",
                        "text": "Everybody knows that %fx2 had a grudge against %fx1, but now they're really going at it.",
                        "x": 0,
                        "y": 0
                    }
                ]
            ],
            "questID": 0,
            "timeLimit": 611358,
            "faction1": 91,
            "faction2": 199,
            "regionID": -1,
            "flags": 8,
            "type": 100
        },
        {
            "rumorType": "CommonRumor",
            "listRumorVariants": [
                [
                    {
                        "formatting": "Text",
                        "text": "%fl1 insulted %fl2 in a missive. Now %fx2 is out to get %fx1.",
                        "x": 0,
                        "y": 0
                    }
                ]
            ],
            "questID": 0,
            "timeLimit": 611358,
            "faction1": 83,
            "faction2": 413,
            "regionID": -1,
            "flags": 8,
            "type": 100
        },
        {
            "rumorType": "CommonRumor",
            "listRumorVariants": [
                [
                    {
                        "formatting": "Text",
                        "text": "I heard that %fx1 and %fx2 have patched up their differences.",
                        "x": 0,
                        "y": 0
                    }
                ]
            ],
            "questID": 0,
            "timeLimit": 611358,
            "faction1": 83,
            "faction2": 490,
            "regionID": -1,
            "flags": 8,
            "type": 100
        },
        {
            "rumorType": "CommonRumor",
            "listRumorVariants": [
                [
                    {
                        "formatting": "Text",
                        "text": "%fx1 paid a large peace fee to %fx2. Hopefully that will stop their quarrelling.",
                        "x": 0,
                        "y": 0
                    }
                ]
            ],
            "questID": 0,
            "timeLimit": 611358,
            "faction1": 85,
            "faction2": 490,
            "regionID": -1,
            "flags": 8,
            "type": 100
        },
        {
            "rumorType": "CommonRumor",
            "listRumorVariants": [
                [
                    {
                        "formatting": "Text",
                        "text": "%fl1 insulted %fl2 in a missive. Now %fx2 is out to get %fx1.",
                        "x": 0,
                        "y": 0
                    }
                ]
            ],
            "questID": 0,
            "timeLimit": 611358,
            "faction1": 463,
            "faction2": 839,
            "regionID": -1,
            "flags": 8,
            "type": 100
        },
        {
            "rumorType": "CommonRumor",
            "listRumorVariants": [
                [
                    {
                        "formatting": "Text",
                        "text": "I never understood why %fx1 and %fx2 were feuding. Well at least that's over now.",
                        "x": 0,
                        "y": 0
                    }
                ]
            ],
            "questID": 0,
            "timeLimit": 611358,
            "faction1": 468,
            "faction2": 511,
            "regionID": -1,
            "flags": 8,
            "type": 100
        },
        {
            "rumorType": "CommonRumor",
            "listRumorVariants": [
                [
                    {
                        "formatting": "Text",
                        "text": "%fx1 and %fx2 hate each other. I wouldn't be surprised if somebody didn't end up dead because of it.",
                        "x": 0,
                        "y": 0
                    }
                ]
            ],
            "questID": 0,
            "timeLimit": 611358,
            "faction1": 245,
            "faction2": 63,
            "regionID": -1,
            "flags": 8,
            "type": 100
        },
        {
            "rumorType": "CommonRumor",
            "listRumorVariants": [
                [
                    {
                        "formatting": "Text",
                        "text": "%fl1 insulted %fl2 in a missive. Now %fx2 is out to get %fx1.",
                        "x": 0,
                        "y": 0
                    }
                ]
            ],
            "questID": 0,
            "timeLimit": 611358,
            "faction1": 93,
            "faction2": 217,
            "regionID": -1,
            "flags": 8,
            "type": 100
        },
        {
            "rumorType": "CommonRumor",
            "listRumorVariants": [
                [
                    {
                        "formatting": "Text",
                        "text": "I heard that %fx1 and %fx2 have patched up their differences.",
                        "x": 0,
                        "y": 0
                    }
                ]
            ],
            "questID": 0,
            "timeLimit": 611358,
            "faction1": 480,
            "faction2": 61,
            "regionID": -1,
            "flags": 8,
            "type": 100
        },
        {
            "rumorType": "CommonRumor",
            "listRumorVariants": [
                [
                    {
                        "formatting": "Text",
                        "text": "Until recently %fx1 and %fx2 worked together. They just recently severed their alliance.",
                        "x": 0,
                        "y": 0
                    }
                ]
            ],
            "questID": 0,
            "timeLimit": 611358,
            "faction1": 249,
            "faction2": 201,
            "regionID": -1,
            "flags": 8,
            "type": 100
        },
        {
            "rumorType": "CommonRumor",
            "listRumorVariants": [
                [
                    {
                        "formatting": "Text",
                        "text": "%fx1 paid a large peace fee to %fx2. Hopefully that will stop their quarrelling.",
                        "x": 0,
                        "y": 0
                    }
                ]
            ],
            "questID": 0,
            "timeLimit": 611358,
            "faction1": 485,
            "faction2": 841,
            "regionID": -1,
            "flags": 8,
            "type": 100
        },
        {
            "rumorType": "CommonRumor",
            "listRumorVariants": [
                [
                    {
                        "formatting": "Text",
                        "text": "Don't spread this around, but %fx1 and %fx2 are working together.",
                        "x": 0,
                        "y": 0
                    }
                ]
            ],
            "questID": 0,
            "timeLimit": 611358,
            "faction1": 497,
            "faction2": 473,
            "regionID": -1,
            "flags": 8,
            "type": 100
        },
        {
            "rumorType": "CommonRumor",
            "listRumorVariants": [
                [
                    {
                        "formatting": "Text",
                        "text": "I never understood why %fx1 and %fx2 were feuding. Well at least that's over now.",
                        "x": 0,
                        "y": 0
                    }
                ]
            ],
            "questID": 0,
            "timeLimit": 611358,
            "faction1": 498,
            "faction2": 88,
            "regionID": -1,
            "flags": 8,
            "type": 100
        },
        {
            "rumorType": "CommonRumor",
            "listRumorVariants": [
                [
                    {
                        "formatting": "Text",
                        "text": "I just found out that %fx1 cut a deal with %fx2. Interesting, huh?",
                        "x": 0,
                        "y": 0
                    }
                ]
            ],
            "questID": 0,
            "timeLimit": 611358,
            "faction1": 496,
            "faction2": 89,
            "regionID": -1,
            "flags": 8,
            "type": 100
        },
        {
            "rumorType": "CommonRumor",
            "listRumorVariants": [
                [
                    {
                        "formatting": "Text",
                        "text": "%fl1 insulted %fl2 in a missive. Now %fx2 is out to get %fx1.",
                        "x": 0,
                        "y": 0
                    }
                ]
            ],
            "questID": 0,
            "timeLimit": 611358,
            "faction1": 254,
            "faction2": 40,
            "regionID": -1,
            "flags": 8,
            "type": 100
        },
        {
            "rumorType": "CommonRumor",
            "listRumorVariants": [
                [
                    {
                        "formatting": "Text",
                        "text": "I never understood why %fx1 and %fx2 were feuding. Well at least that's over now.",
                        "x": 0,
                        "y": 0
                    }
                ]
            ],
            "questID": 0,
            "timeLimit": 611358,
            "faction1": 60,
            "faction2": 252,
            "regionID": -1,
            "flags": 8,
            "type": 100
        },
        {
            "rumorType": "CommonRumor",
            "listRumorVariants": [
                [
                    {
                        "formatting": "Text",
                        "text": "%fx1 has formal relations with %fx2.",
                        "x": 0,
                        "y": 0
                    },
                    {
                        "formatting": "JustifyCenter",
                        "text": null,
                        "x": 0,
                        "y": 0
                    }
                ]
            ],
            "questID": 0,
            "timeLimit": 611358,
            "faction1": 232,
            "faction2": 60,
            "regionID": 56,
            "flags": 1,
            "type": 26
        },
        {
            "rumorType": "CommonRumor",
            "listRumorVariants": [
                [
                    {
                        "formatting": "Text",
                        "text": "You might be interested to know that %fx1 has just allied with %fx2.",
                        "x": 0,
                        "y": 0
                    }
                ]
            ],
            "questID": 0,
            "timeLimit": 611358,
            "faction1": 60,
            "faction2": 232,
            "regionID": -1,
            "flags": 8,
            "type": 100
        },
        {
            "rumorType": "CommonRumor",
            "listRumorVariants": [
                [
                    {
                        "formatting": "Text",
                        "text": "Until recently %fx1 and %fx2 worked together. They just recently severed their alliance.",
                        "x": 0,
                        "y": 0
                    }
                ]
            ],
            "questID": 0,
            "timeLimit": 611358,
            "faction1": 62,
            "faction2": 806,
            "regionID": -1,
            "flags": 8,
            "type": 100
        },
        {
            "rumorType": "CommonRumor",
            "listRumorVariants": [
                [
                    {
                        "formatting": "Text",
                        "text": "I just found out that %fx1 cut a deal with %fx2. Interesting, huh?",
                        "x": 0,
                        "y": 0
                    }
                ]
            ],
            "questID": 0,
            "timeLimit": 611358,
            "faction1": 64,
            "faction2": 470,
            "regionID": -1,
            "flags": 8,
            "type": 100
        },
        {
            "rumorType": "CommonRumor",
            "listRumorVariants": [
                [
                    {
                        "formatting": "Text",
                        "text": "%fx1 got the short end of the stick in some deal. Now they're out to get %fx2",
                        "x": 0,
                        "y": 0
                    }
                ]
            ],
            "questID": 0,
            "timeLimit": 611358,
            "faction1": 802,
            "faction2": 454,
            "regionID": -1,
            "flags": 8,
            "type": 100
        },
        {
            "rumorType": "CommonRumor",
            "listRumorVariants": [
                [
                    {
                        "formatting": "Text",
                        "text": "I heard that %fx1 and %fx2 have patched up their differences.",
                        "x": 0,
                        "y": 0
                    }
                ]
            ],
            "questID": 0,
            "timeLimit": 611358,
            "faction1": 850,
            "faction2": 211,
            "regionID": -1,
            "flags": 8,
            "type": 100
        },
        {
            "rumorType": "CommonRumor",
            "listRumorVariants": [
                [
                    {
                        "formatting": "Text",
                        "text": "%fx1 got the short end of the stick in some deal. Now they're out to get %fx2",
                        "x": 0,
                        "y": 0
                    }
                ]
            ],
            "questID": 0,
            "timeLimit": 611358,
            "faction1": 803,
            "faction2": 497,
            "regionID": -1,
            "flags": 8,
            "type": 100
        },
        {
            "rumorType": "CommonRumor",
            "listRumorVariants": [
                [
                    {
                        "formatting": "Text",
                        "text": "Everybody knows that %fx2 had a grudge against %fx1, but now they're really going at it.",
                        "x": 0,
                        "y": 0
                    }
                ]
            ],
            "questID": 0,
            "timeLimit": 611358,
            "faction1": 804,
            "faction2": 840,
            "regionID": -1,
            "flags": 8,
            "type": 100
        },
        {
            "rumorType": "CommonRumor",
            "listRumorVariants": [
                [
                    {
                        "formatting": "Text",
                        "text": "%fx1 paid a large peace fee to %fx2. Hopefully that will stop their quarrelling.",
                        "x": 0,
                        "y": 0
                    }
                ]
            ],
            "questID": 0,
            "timeLimit": 611358,
            "faction1": 805,
            "faction2": 211,
            "regionID": -1,
            "flags": 8,
            "type": 100
        },
        {
            "rumorType": "CommonRumor",
            "listRumorVariants": [
                [
                    {
                        "formatting": "Text",
                        "text": "%fx1 got the short end of the stick in some deal. Now they're out to get %fx2",
                        "x": 0,
                        "y": 0
                    }
                ]
            ],
            "questID": 0,
            "timeLimit": 611358,
            "faction1": 372,
            "faction2": 417,
            "regionID": -1,
            "flags": 8,
            "type": 100
        },
        {
            "rumorType": "CommonRumor",
            "listRumorVariants": [
                [
                    {
                        "formatting": "Text",
                        "text": "%fx2 is formally allied to %fx1.",
                        "x": 0,
                        "y": 0
                    },
                    {
                        "formatting": "JustifyCenter",
                        "text": null,
                        "x": 0,
                        "y": 0
                    }
                ]
            ],
            "questID": 0,
            "timeLimit": 611358,
            "faction1": 207,
            "faction2": 413,
            "regionID": 23,
            "flags": 1,
            "type": 26
        },
        {
            "rumorType": "CommonRumor",
            "listRumorVariants": [
                [
                    {
                        "formatting": "Text",
                        "text": "You might be interested to know that %fx1 has just allied with %fx2.",
                        "x": 0,
                        "y": 0
                    }
                ]
            ],
            "questID": 0,
            "timeLimit": 611358,
            "faction1": 413,
            "faction2": 207,
            "regionID": -1,
            "flags": 8,
            "type": 100
        },
        {
            "rumorType": "CommonRumor",
            "listRumorVariants": [
                [
                    {
                        "formatting": "Text",
                        "text": "Any person from %fx2 will be persecuted",
                        "x": 0,
                        "y": 0
                    },
                    {
                        "formatting": "JustifyCenter",
                        "text": null,
                        "x": 0,
                        "y": 0
                    },
                    {
                        "formatting": "Text",
                        "text": " to the full extent of the law. -- %nrn",
                        "x": 0,
                        "y": 0
                    },
                    {
                        "formatting": "JustifyCenter",
                        "text": null,
                        "x": 0,
                        "y": 0
                    }
                ]
            ],
            "questID": 0,
            "timeLimit": 611358,
            "faction1": 204,
            "faction2": 512,
            "regionID": 20,
            "flags": 1,
            "type": 27
        },
        {
            "rumorType": "CommonRumor",
            "listRumorVariants": [
                [
                    {
                        "formatting": "Text",
                        "text": "Everybody knows that %fx2 had a grudge against %fx1, but now they're really going at it.",
                        "x": 0,
                        "y": 0
                    }
                ]
            ],
            "questID": 0,
            "timeLimit": 611358,
            "faction1": 204,
            "faction2": 512,
            "regionID": -1,
            "flags": 8,
            "type": 100
        },
        {
            "rumorType": "CommonRumor",
            "listRumorVariants": [
                [
                    {
                        "formatting": "Text",
                        "text": "Don't spread this around, but %fx1 and %fx2 are working together.",
                        "x": 0,
                        "y": 0
                    }
                ]
            ],
            "questID": 0,
            "timeLimit": 611358,
            "faction1": 410,
            "faction2": 247,
            "regionID": -1,
            "flags": 8,
            "type": 100
        },
        {
            "rumorType": "CommonRumor",
            "listRumorVariants": [
                [
                    {
                        "formatting": "Text",
                        "text": "Due to the famine in %reg, all",
                        "x": 0,
                        "y": 0
                    },
                    {
                        "formatting": "JustifyCenter",
                        "text": null,
                        "x": 0,
                        "y": 0
                    },
                    {
                        "formatting": "Text",
                        "text": " merchants importing food must",
                        "x": 0,
                        "y": 0
                    },
                    {
                        "formatting": "JustifyCenter",
                        "text": null,
                        "x": 0,
                        "y": 0
                    },
                    {
                        "formatting": "Text",
                        "text": " report to the gate captain.",
                        "x": 0,
                        "y": 0
                    },
                    {
                        "formatting": "JustifyCenter",
                        "text": null,
                        "x": 0,
                        "y": 0
                    }
                ]
            ],
            "questID": 0,
            "timeLimit": 611358,
            "faction1": 206,
            "faction2": 0,
            "regionID": 22,
            "flags": 1,
            "type": 7
        },
        {
            "rumorType": "CommonRumor",
            "listRumorVariants": [
                [
                    {
                        "formatting": "Text",
                        "text": "%fx1 and %fx2 were close allies until that incident at the palace.",
                        "x": 0,
                        "y": 0
                    }
                ]
            ],
            "questID": 0,
            "timeLimit": 611358,
            "faction1": 411,
            "faction2": 236,
            "regionID": -1,
            "flags": 8,
            "type": 100
        },
        {
            "rumorType": "CommonRumor",
            "listRumorVariants": [
                [
                    {
                        "formatting": "Text",
                        "text": "Until recently %fx1 and %fx2 worked together. They just recently severed their alliance.",
                        "x": 0,
                        "y": 0
                    }
                ]
            ],
            "questID": 0,
            "timeLimit": 611358,
            "faction1": 207,
            "faction2": 413,
            "regionID": -1,
            "flags": 8,
            "type": 100
        },
        {
            "rumorType": "CommonRumor",
            "listRumorVariants": [
                [
                    {
                        "formatting": "Text",
                        "text": "%fx1 and %fx2 have signed an agreement.",
                        "x": 0,
                        "y": 0
                    },
                    {
                        "formatting": "JustifyCenter",
                        "text": null,
                        "x": 0,
                        "y": 0
                    }
                ]
            ],
            "questID": 0,
            "timeLimit": 611358,
            "faction1": 208,
            "faction2": 453,
            "regionID": 32,
            "flags": 1,
            "type": 26
        },
        {
            "rumorType": "CommonRumor",
            "listRumorVariants": [
                [
                    {
                        "formatting": "Text",
                        "text": "I just found out that %fx1 cut a deal with %fx2. Interesting, huh?",
                        "x": 0,
                        "y": 0
                    }
                ]
            ],
            "questID": 0,
            "timeLimit": 611358,
            "faction1": 208,
            "faction2": 453,
            "regionID": -1,
            "flags": 8,
            "type": 100
        },
        {
            "rumorType": "CommonRumor",
            "listRumorVariants": [
                [
                    {
                        "formatting": "Text",
                        "text": "Any person from %fx2 will be persecuted",
                        "x": 0,
                        "y": 0
                    },
                    {
                        "formatting": "JustifyCenter",
                        "text": null,
                        "x": 0,
                        "y": 0
                    },
                    {
                        "formatting": "Text",
                        "text": " to the full extent of the law. -- %nrn",
                        "x": 0,
                        "y": 0
                    },
                    {
                        "formatting": "JustifyCenter",
                        "text": null,
                        "x": 0,
                        "y": 0
                    }
                ]
            ],
            "questID": 0,
            "timeLimit": 611358,
            "faction1": 211,
            "faction2": 412,
            "regionID": 35,
            "flags": 1,
            "type": 27
        },
        {
            "rumorType": "CommonRumor",
            "listRumorVariants": [
                [
                    {
                        "formatting": "Text",
                        "text": "%fx1 and %fx2 hate each other. I wouldn't be surprised if somebody didn't end up dead because of it.",
                        "x": 0,
                        "y": 0
                    }
                ]
            ],
            "questID": 0,
            "timeLimit": 611358,
            "faction1": 211,
            "faction2": 412,
            "regionID": -1,
            "flags": 8,
            "type": 100
        },
        {
            "rumorType": "CommonRumor",
            "listRumorVariants": [
                [
                    {
                        "formatting": "Text",
                        "text": "For crimes against %reg, %fx2",
                        "x": 0,
                        "y": 0
                    },
                    {
                        "formatting": "JustifyCenter",
                        "text": null,
                        "x": 0,
                        "y": 0
                    },
                    {
                        "formatting": "Text",
                        "text": " is the sworn enemy of %nrn.",
                        "x": 0,
                        "y": 0
                    },
                    {
                        "formatting": "JustifyCenter",
                        "text": null,
                        "x": 0,
                        "y": 0
                    }
                ]
            ],
            "questID": 0,
            "timeLimit": 611358,
            "faction1": 212,
            "faction2": 502,
            "regionID": 36,
            "flags": 1,
            "type": 27
        },
        {
            "rumorType": "CommonRumor",
            "listRumorVariants": [
                [
                    {
                        "formatting": "Text",
                        "text": "Persons of %fx2 are to be",
                        "x": 0,
                        "y": 0
                    },
                    {
                        "formatting": "JustifyCenter",
                        "text": null,
                        "x": 0,
                        "y": 0
                    },
                    {
                        "formatting": "Text",
                        "text": " detained upon sight. -- %nrn",
                        "x": 0,
                        "y": 0
                    },
                    {
                        "formatting": "JustifyCenter",
                        "text": null,
                        "x": 0,
                        "y": 0
                    }
                ]
            ],
            "questID": 0,
            "timeLimit": 611358,
            "faction1": 502,
            "faction2": 212,
            "regionID": 16,
            "flags": 1,
            "type": 27
        },
        {
            "rumorType": "CommonRumor",
            "listRumorVariants": [
                [
                    {
                        "formatting": "Text",
                        "text": "Everybody knows that %fx2 had a grudge against %fx1, but now they're really going at it.",
                        "x": 0,
                        "y": 0
                    }
                ]
            ],
            "questID": 0,
            "timeLimit": 611358,
            "faction1": 212,
            "faction2": 502,
            "regionID": -1,
            "flags": 8,
            "type": 100
        },
        {
            "rumorType": "CommonRumor",
            "listRumorVariants": [
                [
                    {
                        "formatting": "Text",
                        "text": "Persons of %fx2 are to be",
                        "x": 0,
                        "y": 0
                    },
                    {
                        "formatting": "JustifyCenter",
                        "text": null,
                        "x": 0,
                        "y": 0
                    },
                    {
                        "formatting": "Text",
                        "text": " detained upon sight. -- %nrn",
                        "x": 0,
                        "y": 0
                    },
                    {
                        "formatting": "JustifyCenter",
                        "text": null,
                        "x": 0,
                        "y": 0
                    }
                ]
            ],
            "questID": 0,
            "timeLimit": 611358,
            "faction1": 215,
            "faction2": 250,
            "regionID": 39,
            "flags": 1,
            "type": 27
        },
        {
            "rumorType": "CommonRumor",
            "listRumorVariants": [
                [
                    {
                        "formatting": "Text",
                        "text": "%fx1 and %fx2 hate each other. I wouldn't be surprised if somebody didn't end up dead because of it.",
                        "x": 0,
                        "y": 0
                    }
                ]
            ],
            "questID": 0,
            "timeLimit": 611358,
            "faction1": 215,
            "faction2": 250,
            "regionID": -1,
            "flags": 8,
            "type": 100
        },
        {
            "rumorType": "CommonRumor",
            "listRumorVariants": [
                [
                    {
                        "formatting": "Text",
                        "text": "%fx1 paid a large peace fee to %fx2. Hopefully that will stop their quarrelling.",
                        "x": 0,
                        "y": 0
                    }
                ]
            ],
            "questID": 0,
            "timeLimit": 611358,
            "faction1": 216,
            "faction2": 850,
            "regionID": -1,
            "flags": 8,
            "type": 100
        },
        {
            "rumorType": "CommonRumor",
            "listRumorVariants": [
                [
                    {
                        "formatting": "Text",
                        "text": "All plague victims must be left",
                        "x": 0,
                        "y": 0
                    },
                    {
                        "formatting": "JustifyCenter",
                        "text": null,
                        "x": 0,
                        "y": 0
                    },
                    {
                        "formatting": "Text",
                        "text": " in the street to be gathered and",
                        "x": 0,
                        "y": 0
                    },
                    {
                        "formatting": "JustifyCenter",
                        "text": null,
                        "x": 0,
                        "y": 0
                    },
                    {
                        "formatting": "Text",
                        "text": " burned. -- %nrn",
                        "x": 0,
                        "y": 0
                    }
                ]
            ],
            "questID": 0,
            "timeLimit": 611358,
            "faction1": 216,
            "faction2": 0,
            "regionID": 40,
            "flags": 1,
            "type": 4
        },
        {
            "rumorType": "CommonRumor",
            "listRumorVariants": [
                [
                    {
                        "formatting": "Text",
                        "text": "%fx2 is formally allied to %fx1.",
                        "x": 0,
                        "y": 0
                    },
                    {
                        "formatting": "JustifyCenter",
                        "text": null,
                        "x": 0,
                        "y": 0
                    }
                ]
            ],
            "questID": 0,
            "timeLimit": 611358,
            "faction1": 218,
            "faction2": 202,
            "regionID": 42,
            "flags": 1,
            "type": 26
        },
        {
            "rumorType": "CommonRumor",
            "listRumorVariants": [
                [
                    {
                        "formatting": "Text",
                        "text": "%fx1 has formal relations with %fx2.",
                        "x": 0,
                        "y": 0
                    },
                    {
                        "formatting": "JustifyCenter",
                        "text": null,
                        "x": 0,
                        "y": 0
                    }
                ]
            ],
            "questID": 0,
            "timeLimit": 611358,
            "faction1": 202,
            "faction2": 218,
            "regionID": 18,
            "flags": 1,
            "type": 26
        },
        {
            "rumorType": "CommonRumor",
            "listRumorVariants": [
                [
                    {
                        "formatting": "Text",
                        "text": "Don't spread this around, but %fx1 and %fx2 are working together.",
                        "x": 0,
                        "y": 0
                    }
                ]
            ],
            "questID": 0,
            "timeLimit": 611358,
            "faction1": 218,
            "faction2": 202,
            "regionID": -1,
            "flags": 8,
            "type": 100
        },
        {
            "rumorType": "CommonRumor",
            "listRumorVariants": [
                [
                    {
                        "formatting": "Text",
                        "text": "%fx2 is formally allied to %fx1.",
                        "x": 0,
                        "y": 0
                    },
                    {
                        "formatting": "JustifyCenter",
                        "text": null,
                        "x": 0,
                        "y": 0
                    }
                ]
            ],
            "questID": 0,
            "timeLimit": 611358,
            "faction1": 219,
            "faction2": 804,
            "regionID": 43,
            "flags": 1,
            "type": 26
        },
        {
            "rumorType": "CommonRumor",
            "listRumorVariants": [
                [
                    {
                        "formatting": "Text",
                        "text": "I just found out that %fx1 cut a deal with %fx2. Interesting, huh?",
                        "x": 0,
                        "y": 0
                    }
                ]
            ],
            "questID": 0,
            "timeLimit": 611358,
            "faction1": 219,
            "faction2": 804,
            "regionID": -1,
            "flags": 8,
            "type": 100
        },
        {
            "rumorType": "CommonRumor",
            "listRumorVariants": [
                [
                    {
                        "formatting": "Text",
                        "text": "%fl1 insulted %fl2 in a missive. Now %fx2 is out to get %fx1.",
                        "x": 0,
                        "y": 0
                    }
                ]
            ],
            "questID": 0,
            "timeLimit": 611358,
            "faction1": 220,
            "faction2": 250,
            "regionID": -1,
            "flags": 8,
            "type": 100
        },
        {
            "rumorType": "CommonRumor",
            "listRumorVariants": [
                [
                    {
                        "formatting": "Text",
                        "text": "%fl1 is the new %lt1 of %reg.",
                        "x": 0,
                        "y": 0
                    },
                    {
                        "formatting": "JustifyCenter",
                        "text": null,
                        "x": 0,
                        "y": 0
                    }
                ]
            ],
            "questID": 0,
            "timeLimit": 611358,
            "faction1": 220,
            "faction2": 0,
            "regionID": -1,
            "flags": 8,
            "type": 12
        },
        {
            "rumorType": "CommonRumor",
            "listRumorVariants": [
                [
                    {
                        "formatting": "Text",
                        "text": "%fx1 and %fx2 have signed an agreement.",
                        "x": 0,
                        "y": 0
                    },
                    {
                        "formatting": "JustifyCenter",
                        "text": null,
                        "x": 0,
                        "y": 0
                    }
                ]
            ],
            "questID": 0,
            "timeLimit": 611358,
            "faction1": 221,
            "faction2": 201,
            "regionID": 45,
            "flags": 1,
            "type": 26
        },
        {
            "rumorType": "CommonRumor",
            "listRumorVariants": [
                [
                    {
                        "formatting": "Text",
                        "text": "%fx2 is formally allied to %fx1.",
                        "x": 0,
                        "y": 0
                    },
                    {
                        "formatting": "JustifyCenter",
                        "text": null,
                        "x": 0,
                        "y": 0
                    }
                ]
            ],
            "questID": 0,
            "timeLimit": 611358,
            "faction1": 201,
            "faction2": 221,
            "regionID": 17,
            "flags": 1,
            "type": 26
        },
        {
            "rumorType": "CommonRumor",
            "listRumorVariants": [
                [
                    {
                        "formatting": "Text",
                        "text": "I just found out that %fx1 cut a deal with %fx2. Interesting, huh?",
                        "x": 0,
                        "y": 0
                    }
                ]
            ],
            "questID": 0,
            "timeLimit": 611358,
            "faction1": 221,
            "faction2": 201,
            "regionID": -1,
            "flags": 8,
            "type": 100
        },
        {
            "rumorType": "CommonRumor",
            "listRumorVariants": [
                [
                    {
                        "formatting": "Text",
                        "text": "Bewarned all visitors. Our fair",
                        "x": 0,
                        "y": 0
                    },
                    {
                        "formatting": "JustifyCenter",
                        "text": null,
                        "x": 0,
                        "y": 0
                    },
                    {
                        "formatting": "Text",
                        "text": " town is beset by the plague.",
                        "x": 0,
                        "y": 0
                    },
                    {
                        "formatting": "JustifyCenter",
                        "text": null,
                        "x": 0,
                        "y": 0
                    }
                ]
            ],
            "questID": 0,
            "timeLimit": 611358,
            "faction1": 222,
            "faction2": 0,
            "regionID": 46,
            "flags": 1,
            "type": 4
        },
        {
            "rumorType": "CommonRumor",
            "listRumorVariants": [
                [
                    {
                        "formatting": "Text",
                        "text": "%fx1 has formal relations with %fx2.",
                        "x": 0,
                        "y": 0
                    },
                    {
                        "formatting": "JustifyCenter",
                        "text": null,
                        "x": 0,
                        "y": 0
                    }
                ]
            ],
            "questID": 0,
            "timeLimit": 611358,
            "faction1": 223,
            "faction2": 220,
            "regionID": 47,
            "flags": 1,
            "type": 26
        },
        {
            "rumorType": "CommonRumor",
            "listRumorVariants": [
                [
                    {
                        "formatting": "Text",
                        "text": "%fx1 has formal relations with %fx2.",
                        "x": 0,
                        "y": 0
                    },
                    {
                        "formatting": "JustifyCenter",
                        "text": null,
                        "x": 0,
                        "y": 0
                    }
                ]
            ],
            "questID": 0,
            "timeLimit": 611358,
            "faction1": 220,
            "faction2": 223,
            "regionID": 44,
            "flags": 1,
            "type": 26
        },
        {
            "rumorType": "CommonRumor",
            "listRumorVariants": [
                [
                    {
                        "formatting": "Text",
                        "text": "Don't spread this around, but %fx1 and %fx2 are working together.",
                        "x": 0,
                        "y": 0
                    }
                ]
            ],
            "questID": 0,
            "timeLimit": 611358,
            "faction1": 223,
            "faction2": 220,
            "regionID": -1,
            "flags": 8,
            "type": 100
        },
        {
            "rumorType": "CommonRumor",
            "listRumorVariants": [
                [
                    {
                        "formatting": "Text",
                        "text": "%fl1 is the new %lt1 of %reg.",
                        "x": 0,
                        "y": 0
                    },
                    {
                        "formatting": "JustifyCenter",
                        "text": null,
                        "x": 0,
                        "y": 0
                    }
                ]
            ],
            "questID": 0,
            "timeLimit": 611358,
            "faction1": 223,
            "faction2": 0,
            "regionID": -1,
            "flags": 8,
            "type": 12
        },
        {
            "rumorType": "CommonRumor",
            "listRumorVariants": [
                [
                    {
                        "formatting": "Text",
                        "text": "Bewarned all visitors. Our fair",
                        "x": 0,
                        "y": 0
                    },
                    {
                        "formatting": "JustifyCenter",
                        "text": null,
                        "x": 0,
                        "y": 0
                    },
                    {
                        "formatting": "Text",
                        "text": " town is beset by the plague.",
                        "x": 0,
                        "y": 0
                    },
                    {
                        "formatting": "JustifyCenter",
                        "text": null,
                        "x": 0,
                        "y": 0
                    }
                ]
            ],
            "questID": 0,
            "timeLimit": 611358,
            "faction1": 223,
            "faction2": 0,
            "regionID": 47,
            "flags": 1,
            "type": 4
        },
        {
            "rumorType": "CommonRumor",
            "listRumorVariants": [
                [
                    {
                        "formatting": "Text",
                        "text": "%fx1 and %fx2 were close allies until that incident at the palace.",
                        "x": 0,
                        "y": 0
                    }
                ]
            ],
            "questID": 0,
            "timeLimit": 611358,
            "faction1": 224,
            "faction2": 223,
            "regionID": -1,
            "flags": 8,
            "type": 100
        },
        {
            "rumorType": "CommonRumor",
            "listRumorVariants": [
                [
                    {
                        "formatting": "Text",
                        "text": "The noble ruler, %ol1 %olf.",
                        "x": 0,
                        "y": 0
                    },
                    {
                        "formatting": "JustifyCenter",
                        "text": null,
                        "x": 0,
                        "y": 0
                    },
                    {
                        "formatting": "Text",
                        "text": " Long live %fl1, newly made %lt1 of %reg.",
                        "x": 0,
                        "y": 0
                    },
                    {
                        "formatting": "JustifyCenter",
                        "text": null,
                        "x": 0,
                        "y": 0
                    }
                ]
            ],
            "questID": 0,
            "timeLimit": 611358,
            "faction1": 225,
            "faction2": 0,
            "regionID": -1,
            "flags": 8,
            "type": 12
        },
        {
            "rumorType": "CommonRumor",
            "listRumorVariants": [
                [
                    {
                        "formatting": "Text",
                        "text": "%fx1 paid a large peace fee to %fx2. Hopefully that will stop their quarrelling.",
                        "x": 0,
                        "y": 0
                    }
                ]
            ],
            "questID": 0,
            "timeLimit": 611358,
            "faction1": 226,
            "faction2": 60,
            "regionID": -1,
            "flags": 8,
            "type": 100
        },
        {
            "rumorType": "CommonRumor",
            "listRumorVariants": [
                [
                    {
                        "formatting": "Text",
                        "text": "I heard that %fx1 and %fx2 have patched up their differences.",
                        "x": 0,
                        "y": 0
                    }
                ]
            ],
            "questID": 0,
            "timeLimit": 611358,
            "faction1": 227,
            "faction2": 231,
            "regionID": -1,
            "flags": 8,
            "type": 100
        },
        {
            "rumorType": "CommonRumor",
            "listRumorVariants": [
                [
                    {
                        "formatting": "Text",
                        "text": "Persons of %fx2 are to be",
                        "x": 0,
                        "y": 0
                    },
                    {
                        "formatting": "JustifyCenter",
                        "text": null,
                        "x": 0,
                        "y": 0
                    },
                    {
                        "formatting": "Text",
                        "text": " detained upon sight. -- %nrn",
                        "x": 0,
                        "y": 0
                    },
                    {
                        "formatting": "JustifyCenter",
                        "text": null,
                        "x": 0,
                        "y": 0
                    }
                ]
            ],
            "questID": 0,
            "timeLimit": 611358,
            "faction1": 233,
            "faction2": 839,
            "regionID": 57,
            "flags": 1,
            "type": 27
        },
        {
            "rumorType": "CommonRumor",
            "listRumorVariants": [
                [
                    {
                        "formatting": "Text",
                        "text": "Everybody knows that %fx2 had a grudge against %fx1, but now they're really going at it.",
                        "x": 0,
                        "y": 0
                    }
                ]
            ],
            "questID": 0,
            "timeLimit": 611358,
            "faction1": 233,
            "faction2": 839,
            "regionID": -1,
            "flags": 8,
            "type": 100
        },
        {
            "rumorType": "CommonRumor",
            "listRumorVariants": [
                [
                    {
                        "formatting": "Text",
                        "text": "%fl1 insulted %fl2 in a missive. Now %fx2 is out to get %fx1.",
                        "x": 0,
                        "y": 0
                    }
                ]
            ],
            "questID": 0,
            "timeLimit": 611358,
            "faction1": 235,
            "faction2": 89,
            "regionID": -1,
            "flags": 8,
            "type": 100
        },
        {
            "rumorType": "CommonRumor",
            "listRumorVariants": [
                [
                    {
                        "formatting": "Text",
                        "text": "%fl1 has ascended to the throne and",
                        "x": 0,
                        "y": 0
                    },
                    {
                        "formatting": "JustifyCenter",
                        "text": null,
                        "x": 0,
                        "y": 0
                    },
                    {
                        "formatting": "Text",
                        "text": " is the new %lt1. Long may %fl1 rule over %reg.",
                        "x": 0,
                        "y": 0
                    },
                    {
                        "formatting": "JustifyCenter",
                        "text": null,
                        "x": 0,
                        "y": 0
                    }
                ]
            ],
            "questID": 0,
            "timeLimit": 611358,
            "faction1": 235,
            "faction2": 0,
            "regionID": -1,
            "flags": 8,
            "type": 12
        },
        {
            "rumorType": "CommonRumor",
            "listRumorVariants": [
                [
                    {
                        "formatting": "Text",
                        "text": "%fl1 has ascended to the throne and",
                        "x": 0,
                        "y": 0
                    },
                    {
                        "formatting": "JustifyCenter",
                        "text": null,
                        "x": 0,
                        "y": 0
                    },
                    {
                        "formatting": "Text",
                        "text": " is the new %lt1. Long may %fl1 rule over %reg.",
                        "x": 0,
                        "y": 0
                    },
                    {
                        "formatting": "JustifyCenter",
                        "text": null,
                        "x": 0,
                        "y": 0
                    }
                ]
            ],
            "questID": 0,
            "timeLimit": 611358,
            "faction1": 236,
            "faction2": 0,
            "regionID": -1,
            "flags": 8,
            "type": 12
        },
        {
            "rumorType": "CommonRumor",
            "listRumorVariants": [
                [
                    {
                        "formatting": "Text",
                        "text": "%fx1 and %fx2 have signed an agreement.",
                        "x": 0,
                        "y": 0
                    },
                    {
                        "formatting": "JustifyCenter",
                        "text": null,
                        "x": 0,
                        "y": 0
                    }
                ]
            ],
            "questID": 0,
            "timeLimit": 611358,
            "faction1": 212,
            "faction2": 306,
            "regionID": 36,
            "flags": 1,
            "type": 26
        },
        {
            "rumorType": "CommonRumor",
            "listRumorVariants": [
                [
                    {
                        "formatting": "Text",
                        "text": "You might be interested to know that %fx1 has just allied with %fx2.",
                        "x": 0,
                        "y": 0
                    }
                ]
            ],
            "questID": 0,
            "timeLimit": 611358,
            "faction1": 306,
            "faction2": 212,
            "regionID": -1,
            "flags": 8,
            "type": 100
        },
        {
            "rumorType": "CommonRumor",
            "listRumorVariants": [
                [
                    {
                        "formatting": "Text",
                        "text": "Until recently %fx1 and %fx2 worked together. They just recently severed their alliance.",
                        "x": 0,
                        "y": 0
                    }
                ]
            ],
            "questID": 0,
            "timeLimit": 611358,
            "faction1": 354,
            "faction2": 225,
            "regionID": -1,
            "flags": 8,
            "type": 100
        },
        {
            "rumorType": "CommonRumor",
            "listRumorVariants": [
                [
                    {
                        "formatting": "Text",
                        "text": "Until recently %fx1 and %fx2 worked together. They just recently severed their alliance.",
                        "x": 0,
                        "y": 0
                    }
                ]
            ],
            "questID": 0,
            "timeLimit": 611358,
            "faction1": 412,
            "faction2": 61,
            "regionID": -1,
            "flags": 8,
            "type": 100
        },
        {
            "rumorType": "CommonRumor",
            "listRumorVariants": [
                [
                    {
                        "formatting": "Text",
                        "text": "%fx1 and %fx2 have signed an agreement.",
                        "x": 0,
                        "y": 0
                    },
                    {
                        "formatting": "JustifyCenter",
                        "text": null,
                        "x": 0,
                        "y": 0
                    }
                ]
            ],
            "questID": 0,
            "timeLimit": 611358,
            "faction1": 358,
            "faction2": 218,
            "regionID": 26,
            "flags": 1,
            "type": 26
        },
        {
            "rumorType": "CommonRumor",
            "listRumorVariants": [
                [
                    {
                        "formatting": "Text",
                        "text": "%fx2 is formally allied to %fx1.",
                        "x": 0,
                        "y": 0
                    },
                    {
                        "formatting": "JustifyCenter",
                        "text": null,
                        "x": 0,
                        "y": 0
                    }
                ]
            ],
            "questID": 0,
            "timeLimit": 611358,
            "faction1": 218,
            "faction2": 358,
            "regionID": 42,
            "flags": 1,
            "type": 26
        },
        {
            "rumorType": "CommonRumor",
            "listRumorVariants": [
                [
                    {
                        "formatting": "Text",
                        "text": "I just found out that %fx1 cut a deal with %fx2. Interesting, huh?",
                        "x": 0,
                        "y": 0
                    }
                ]
            ],
            "questID": 0,
            "timeLimit": 611358,
            "faction1": 358,
            "faction2": 218,
            "regionID": -1,
            "flags": 8,
            "type": 100
        },
        {
            "rumorType": "CommonRumor",
            "listRumorVariants": [
                [
                    {
                        "formatting": "Text",
                        "text": "Persons of %fx2 are to be",
                        "x": 0,
                        "y": 0
                    },
                    {
                        "formatting": "JustifyCenter",
                        "text": null,
                        "x": 0,
                        "y": 0
                    },
                    {
                        "formatting": "Text",
                        "text": " detained upon sight. -- %nrn",
                        "x": 0,
                        "y": 0
                    },
                    {
                        "formatting": "JustifyCenter",
                        "text": null,
                        "x": 0,
                        "y": 0
                    }
                ]
            ],
            "questID": 0,
            "timeLimit": 611358,
            "faction1": 358,
            "faction2": 200,
            "regionID": 26,
            "flags": 1,
            "type": 27
        },
        {
            "rumorType": "CommonRumor",
            "listRumorVariants": [
                [
                    {
                        "formatting": "Text",
                        "text": "For crimes against %reg, %fx2",
                        "x": 0,
                        "y": 0
                    },
                    {
                        "formatting": "JustifyCenter",
                        "text": null,
                        "x": 0,
                        "y": 0
                    },
                    {
                        "formatting": "Text",
                        "text": " is the sworn enemy of %nrn.",
                        "x": 0,
                        "y": 0
                    },
                    {
                        "formatting": "JustifyCenter",
                        "text": null,
                        "x": 0,
                        "y": 0
                    }
                ]
            ],
            "questID": 0,
            "timeLimit": 611358,
            "faction1": 200,
            "faction2": 358,
            "regionID": 5,
            "flags": 1,
            "type": 27
        },
        {
            "rumorType": "CommonRumor",
            "listRumorVariants": [
                [
                    {
                        "formatting": "Text",
                        "text": "Everybody knows that %fx2 had a grudge against %fx1, but now they're really going at it.",
                        "x": 0,
                        "y": 0
                    }
                ]
            ],
            "questID": 0,
            "timeLimit": 611358,
            "faction1": 358,
            "faction2": 200,
            "regionID": -1,
            "flags": 8,
            "type": 100
        },
        {
            "rumorType": "CommonRumor",
            "listRumorVariants": [
                [
                    {
                        "formatting": "Text",
                        "text": "%fl1 insulted %fl2 in a missive. Now %fx2 is out to get %fx1.",
                        "x": 0,
                        "y": 0
                    }
                ]
            ],
            "questID": 0,
            "timeLimit": 611358,
            "faction1": 510,
            "faction2": 372,
            "regionID": -1,
            "flags": 8,
            "type": 100
        },
        {
            "rumorType": "CommonRumor",
            "listRumorVariants": [
                [
                    {
                        "formatting": "Text",
                        "text": "%fx1 paid a large peace fee to %fx2. Hopefully that will stop their quarrelling.",
                        "x": 0,
                        "y": 0
                    }
                ]
            ],
            "questID": 0,
            "timeLimit": 611358,
            "faction1": 510,
            "faction2": 513,
            "regionID": -1,
            "flags": 8,
            "type": 100
        },
        {
            "rumorType": "CommonRumor",
            "listRumorVariants": [
                [
                    {
                        "formatting": "Text",
                        "text": "%fx1 got the short end of the stick in some deal. Now they're out to get %fx2",
                        "x": 0,
                        "y": 0
                    }
                ]
            ],
            "questID": 0,
            "timeLimit": 611358,
            "faction1": 510,
            "faction2": 62,
            "regionID": -1,
            "flags": 8,
            "type": 100
        },
        {
            "rumorType": "CommonRumor",
            "listRumorVariants": [
                [
                    {
                        "formatting": "Text",
                        "text": "%fl1 insulted %fl2 in a missive. Now %fx2 is out to get %fx1.",
                        "x": 0,
                        "y": 0
                    }
                ]
            ],
            "questID": 0,
            "timeLimit": 611358,
            "faction1": 511,
            "faction2": 415,
            "regionID": -1,
            "flags": 8,
            "type": 100
        },
        {
            "rumorType": "CommonRumor",
            "listRumorVariants": [
                [
                    {
                        "formatting": "Text",
                        "text": "I heard that %fx1 and %fx2 have patched up their differences.",
                        "x": 0,
                        "y": 0
                    }
                ]
            ],
            "questID": 0,
            "timeLimit": 611358,
            "faction1": 511,
            "faction2": 235,
            "regionID": -1,
            "flags": 8,
            "type": 100
        },
        {
            "rumorType": "CommonRumor",
            "listRumorVariants": [
                [
                    {
                        "formatting": "Text",
                        "text": "Persons of %fx2 are to be",
                        "x": 0,
                        "y": 0
                    },
                    {
                        "formatting": "JustifyCenter",
                        "text": null,
                        "x": 0,
                        "y": 0
                    },
                    {
                        "formatting": "Text",
                        "text": " detained upon sight. -- %nrn",
                        "x": 0,
                        "y": 0
                    },
                    {
                        "formatting": "JustifyCenter",
                        "text": null,
                        "x": 0,
                        "y": 0
                    }
                ]
            ],
            "questID": 0,
            "timeLimit": 611358,
            "faction1": 218,
            "faction2": 513,
            "regionID": 42,
            "flags": 1,
            "type": 27
        },
        {
            "rumorType": "CommonRumor",
            "listRumorVariants": [
                [
                    {
                        "formatting": "Text",
                        "text": "%fx1 and %fx2 hate each other. I wouldn't be surprised if somebody didn't end up dead because of it.",
                        "x": 0,
                        "y": 0
                    }
                ]
            ],
            "questID": 0,
            "timeLimit": 611358,
            "faction1": 513,
            "faction2": 218,
            "regionID": -1,
            "flags": 8,
            "type": 100
        },
        {
            "rumorType": "CommonRumor",
            "listRumorVariants": [
                [
                    {
                        "formatting": "Text",
                        "text": "Until recently %fx1 and %fx2 worked together. They just recently severed their alliance.",
                        "x": 0,
                        "y": 0
                    }
                ]
            ],
            "questID": 0,
            "timeLimit": 611358,
            "faction1": 515,
            "faction2": 67,
            "regionID": -1,
            "flags": 8,
            "type": 100
        },
        {
            "rumorType": "CommonRumor",
            "listRumorVariants": [
                [
                    {
                        "formatting": "Text",
                        "text": "For crimes against %reg, %fx2",
                        "x": 0,
                        "y": 0
                    },
                    {
                        "formatting": "JustifyCenter",
                        "text": null,
                        "x": 0,
                        "y": 0
                    },
                    {
                        "formatting": "Text",
                        "text": " is the sworn enemy of %nrn.",
                        "x": 0,
                        "y": 0
                    },
                    {
                        "formatting": "JustifyCenter",
                        "text": null,
                        "x": 0,
                        "y": 0
                    }
                ]
            ],
            "questID": 0,
            "timeLimit": 611358,
            "faction1": 505,
            "faction2": 513,
            "regionID": 1,
            "flags": 1,
            "type": 27
        },
        {
            "rumorType": "CommonRumor",
            "listRumorVariants": [
                [
                    {
                        "formatting": "Text",
                        "text": "%fx1 got the short end of the stick in some deal. Now they're out to get %fx2",
                        "x": 0,
                        "y": 0
                    }
                ]
            ],
            "questID": 0,
            "timeLimit": 611358,
            "faction1": 505,
            "faction2": 513,
            "regionID": -1,
            "flags": 8,
            "type": 100
        },
        {
            "rumorType": "CommonRumor",
            "listRumorVariants": [
                [
                    {
                        "formatting": "Text",
                        "text": "I heard that %fx1 and %fx2 have patched up their differences.",
                        "x": 0,
                        "y": 0
                    }
                ]
            ],
            "questID": 0,
            "timeLimit": 611358,
            "faction1": 508,
            "faction2": 485,
            "regionID": -1,
            "flags": 8,
            "type": 100
        },
        {
            "rumorType": "CommonRumor",
            "listRumorVariants": [
                [
                    {
                        "formatting": "Text",
                        "text": "%fx2 is formally allied to %fx1.",
                        "x": 0,
                        "y": 0
                    },
                    {
                        "formatting": "JustifyCenter",
                        "text": null,
                        "x": 0,
                        "y": 0
                    }
                ]
            ],
            "questID": 0,
            "timeLimit": 611358,
            "faction1": 508,
            "faction2": 226,
            "regionID": 0,
            "flags": 1,
            "type": 26
        },
        {
            "rumorType": "CommonRumor",
            "listRumorVariants": [
                [
                    {
                        "formatting": "Text",
                        "text": "%fx1 and %fx2 have signed an agreement.",
                        "x": 0,
                        "y": 0
                    },
                    {
                        "formatting": "JustifyCenter",
                        "text": null,
                        "x": 0,
                        "y": 0
                    }
                ]
            ],
            "questID": 0,
            "timeLimit": 611358,
            "faction1": 226,
            "faction2": 508,
            "regionID": 50,
            "flags": 1,
            "type": 26
        },
        {
            "rumorType": "CommonRumor",
            "listRumorVariants": [
                [
                    {
                        "formatting": "Text",
                        "text": "You might be interested to know that %fx1 has just allied with %fx2.",
                        "x": 0,
                        "y": 0
                    }
                ]
            ],
            "questID": 0,
            "timeLimit": 611358,
            "faction1": 508,
            "faction2": 226,
            "regionID": -1,
            "flags": 8,
            "type": 100
        },
        {
            "rumorType": "CommonRumor",
            "listRumorVariants": [
                [
                    {
                        "formatting": "Text",
                        "text": "%fx1 has formal relations with %fx2.",
                        "x": 0,
                        "y": 0
                    },
                    {
                        "formatting": "JustifyCenter",
                        "text": null,
                        "x": 0,
                        "y": 0
                    }
                ]
            ],
            "questID": 0,
            "timeLimit": 611358,
            "faction1": 591,
            "faction2": 196,
            "regionID": 11,
            "flags": 1,
            "type": 26
        },
        {
            "rumorType": "CommonRumor",
            "listRumorVariants": [
                [
                    {
                        "formatting": "Text",
                        "text": "%fx1 has formal relations with %fx2.",
                        "x": 0,
                        "y": 0
                    },
                    {
                        "formatting": "JustifyCenter",
                        "text": null,
                        "x": 0,
                        "y": 0
                    }
                ]
            ],
            "questID": 0,
            "timeLimit": 611358,
            "faction1": 196,
            "faction2": 591,
            "regionID": 59,
            "flags": 1,
            "type": 26
        },
        {
            "rumorType": "CommonRumor",
            "listRumorVariants": [
                [
                    {
                        "formatting": "Text",
                        "text": "I just found out that %fx1 cut a deal with %fx2. Interesting, huh?",
                        "x": 0,
                        "y": 0
                    }
                ]
            ],
            "questID": 0,
            "timeLimit": 611358,
            "faction1": 591,
            "faction2": 196,
            "regionID": -1,
            "flags": 8,
            "type": 100
        },
        {
            "rumorType": "CommonRumor",
            "listRumorVariants": [
                [
                    {
                        "formatting": "Text",
                        "text": "%fx1 and %fx2 were close allies until that incident at the palace.",
                        "x": 0,
                        "y": 0
                    }
                ]
            ],
            "questID": 0,
            "timeLimit": 611358,
            "faction1": 196,
            "faction2": 591,
            "regionID": -1,
            "flags": 8,
            "type": 100
        },
        {
            "rumorType": "CommonRumor",
            "listRumorVariants": [
                [
                    {
                        "formatting": "Text",
                        "text": "Persons of %fx2 are to be",
                        "x": 0,
                        "y": 0
                    },
                    {
                        "formatting": "JustifyCenter",
                        "text": null,
                        "x": 0,
                        "y": 0
                    },
                    {
                        "formatting": "Text",
                        "text": " detained upon sight. -- %nrn",
                        "x": 0,
                        "y": 0
                    },
                    {
                        "formatting": "JustifyCenter",
                        "text": null,
                        "x": 0,
                        "y": 0
                    }
                ]
            ],
            "questID": 0,
            "timeLimit": 611358,
            "faction1": 196,
            "faction2": 481,
            "regionID": 59,
            "flags": 1,
            "type": 27
        },
        {
            "rumorType": "CommonRumor",
            "listRumorVariants": [
                [
                    {
                        "formatting": "Text",
                        "text": "%fx1 got the short end of the stick in some deal. Now they're out to get %fx2",
                        "x": 0,
                        "y": 0
                    }
                ]
            ],
            "questID": 0,
            "timeLimit": 611358,
            "faction1": 196,
            "faction2": 481,
            "regionID": -1,
            "flags": 8,
            "type": 100
        },
        {
            "rumorType": "CommonRumor",
            "listRumorVariants": [
                [
                    {
                        "formatting": "Text",
                        "text": "What the Mages Guild is saying about the witches isn't true. The old hags in the forest are mostly harmless.",
                        "x": 0,
                        "y": 0
                    }
                ]
            ],
            "questID": 0,
            "timeLimit": 611358,
            "faction1": 0,
            "faction2": 0,
            "regionID": -1,
            "flags": 8,
            "type": 100
        },
        {
            "rumorType": "CommonRumor",
            "listRumorVariants": [
                [
                    {
                        "formatting": "Text",
                        "text": "The vampires are not just mindless monsters. The clans meet in secret and plot to control all of mankind!",
                        "x": 0,
                        "y": 0
                    }
                ]
            ],
            "questID": 0,
            "timeLimit": 611358,
            "faction1": 0,
            "faction2": 0,
            "regionID": -1,
            "flags": 8,
            "type": 100
        },
        {
            "rumorType": "CommonRumor",
            "listRumorVariants": [
                [
                    {
                        "formatting": "Text",
                        "text": "%n, a mage's apprentice, was telling me that there are powerful beings called Daedras living in a place called Oblivion. They can grant a man powerful magical items called artifacts. I'm sure it's just a story.",
                        "x": 0,
                        "y": 0
                    }
                ]
            ],
            "questID": 0,
            "timeLimit": 611358,
            "faction1": 0,
            "faction2": 0,
            "regionID": -1,
            "flags": 8,
            "type": 100
        },
        {
            "rumorType": "CommonRumor",
            "listRumorVariants": [
                [
                    {
                        "formatting": "Text",
                        "text": "I've heard it said that the witches can help a person find one of the lost artifacts of ancient power.",
                        "x": 0,
                        "y": 0
                    }
                ]
            ],
            "questID": 0,
            "timeLimit": 611358,
            "faction1": 0,
            "faction2": 0,
            "regionID": -1,
            "flags": 8,
            "type": 100
        },
        {
            "rumorType": "CommonRumor",
            "listRumorVariants": [
                [
                    {
                        "formatting": "Text",
                        "text": "The Thieves Guild is not just a legend it's real. I cannot tell you how I know, or they will kill me.",
                        "x": 0,
                        "y": 0
                    }
                ]
            ],
            "questID": 0,
            "timeLimit": 611358,
            "faction1": 0,
            "faction2": 0,
            "regionID": -1,
            "flags": 8,
            "type": 100
        },
        {
            "rumorType": "CommonRumor",
            "listRumorVariants": [
                [
                    {
                        "formatting": "Text",
                        "text": "The Dark Brotherhood is quite powerful in %reg. This assassins guild punishes outsiders that kill for money.",
                        "x": 0,
                        "y": 0
                    }
                ]
            ],
            "questID": 0,
            "timeLimit": 611358,
            "faction1": 0,
            "faction2": 0,
            "regionID": -1,
            "flags": 8,
            "type": 100
        },
        {
            "rumorType": "CommonRumor",
            "listRumorVariants": [
                [
                    {
                        "formatting": "Text",
                        "text": "%lt1 is having an affair.",
                        "x": 0,
                        "y": 0
                    }
                ]
            ],
            "questID": 0,
            "timeLimit": 611358,
            "faction1": 0,
            "faction2": 0,
            "regionID": -1,
            "flags": 8,
            "type": 100
        }
    ],
    "dictQuestorPostQuestMessage": {

    },
    "npcsWithWork": [
        {
            "Key": 209531,
            "Value": {
                "npc": {
                    "hash": -240,
                    "flags": 13,
                    "factionID": 510,
                    "nameSeed": 209531,
                    "gender": "Male",
                    "context": "Custom",
                    "mapID": 0,
                    "locationID": 0,
                    "buildingKey": 196865,
                    "nameBank": "Breton",
                    "billboardArchiveIndex": 182,
                    "billboardRecordIndex": 3
                },
                "socialGroup": "Merchants",
                "buildingName": "The Lion and Woodchuck"
            }
        },
        {
            "Key": 209514,
            "Value": {
                "npc": {
                    "hash": 102,
                    "flags": 33,
                    "factionID": 534,
                    "nameSeed": 209514,
                    "gender": "Female",
                    "context": "Custom",
                    "mapID": 0,
                    "locationID": 0,
                    "buildingKey": 196865,
                    "nameBank": "Breton",
                    "billboardArchiveIndex": 184,
                    "billboardRecordIndex": 10
                },
                "socialGroup": "Commoners",
                "buildingName": "The Lion and Woodchuck"
            }
        },
        {
            "Key": 209460,
            "Value": {
                "npc": {
                    "hash": -204,
                    "flags": 33,
                    "factionID": 534,
                    "nameSeed": 209460,
                    "gender": "Female",
                    "context": "Custom",
                    "mapID": 0,
                    "locationID": 0,
                    "buildingKey": 196865,
                    "nameBank": "Breton",
                    "billboardArchiveIndex": 182,
                    "billboardRecordIndex": 11
                },
                "socialGroup": "Commoners",
                "buildingName": "The Lion and Woodchuck"
            }
        },
        {
            "Key": 338342,
            "Value": {
                "npc": {
                    "hash": 724,
                    "flags": 1,
                    "factionID": 534,
                    "nameSeed": 338342,
                    "gender": "Male",
                    "context": "Custom",
                    "mapID": 0,
                    "locationID": 0,
                    "buildingKey": 327936,
                    "nameBank": "Breton",
                    "billboardArchiveIndex": 182,
                    "billboardRecordIndex": 19
                },
                "socialGroup": "Commoners",
                "buildingName": "Lady Trististyr's Pawnbrokers"
            }
        },
        {
            "Key": 145929,
            "Value": {
                "npc": {
                    "hash": -352,
                    "flags": 33,
                    "factionID": 534,
                    "nameSeed": 145929,
                    "gender": "Female",
                    "context": "Custom",
                    "mapID": 0,
                    "locationID": 0,
                    "buildingKey": 131585,
                    "nameBank": "Breton",
                    "billboardArchiveIndex": 184,
                    "billboardRecordIndex": 9
                },
                "socialGroup": "Commoners",
                "buildingName": "The Dwarf and Scorpion"
            }
        },
        {
            "Key": 242895,
            "Value": {
                "npc": {
                    "hash": 46,
                    "flags": 5,
                    "factionID": 510,
                    "nameSeed": 242895,
                    "gender": "Male",
                    "context": "Custom",
                    "mapID": 0,
                    "locationID": 0,
                    "buildingKey": 197134,
                    "nameBank": "Breton",
                    "billboardArchiveIndex": 182,
                    "billboardRecordIndex": 0
                },
                "socialGroup": "Merchants",
                "buildingName": "Doctor Uthastyr's Pawnshop"
            }
        },
        {
            "Key": 337086,
            "Value": {
                "npc": {
                    "hash": 272,
                    "flags": 41,
                    "factionID": 534,
                    "nameSeed": 337086,
                    "gender": "Female",
                    "context": "Custom",
                    "mapID": 0,
                    "locationID": 0,
                    "buildingKey": 328192,
                    "nameBank": "Breton",
                    "billboardArchiveIndex": 182,
                    "billboardRecordIndex": 12
                },
                "socialGroup": "Commoners",
                "buildingName": "The Screaming Barbarian"
            }
        },
        {
            "Key": 337048,
            "Value": {
                "npc": {
                    "hash": -380,
                    "flags": 9,
                    "factionID": 534,
                    "nameSeed": 337048,
                    "gender": "Male",
                    "context": "Custom",
                    "mapID": 0,
                    "locationID": 0,
                    "buildingKey": 328192,
                    "nameBank": "Breton",
                    "billboardArchiveIndex": 182,
                    "billboardRecordIndex": 15
                },
                "socialGroup": "Commoners",
                "buildingName": "The Screaming Barbarian"
            }
        },
        {
            "Key": 375548,
            "Value": {
                "npc": {
                    "hash": -72,
                    "flags": 33,
                    "factionID": 534,
                    "nameSeed": 375548,
                    "gender": "Female",
                    "context": "Custom",
                    "mapID": 0,
                    "locationID": 0,
                    "buildingKey": 328208,
                    "nameBank": "Breton",
                    "billboardArchiveIndex": 184,
                    "billboardRecordIndex": 7
                },
                "socialGroup": "Commoners",
                "buildingName": "Mordyval's Finest Jewelry"
            }
        },
        {
            "Key": 380886,
            "Value": {
                "npc": {
                    "hash": -52,
                    "flags": 13,
                    "factionID": 510,
                    "nameSeed": 380886,
                    "gender": "Male",
                    "context": "Custom",
                    "mapID": 0,
                    "locationID": 0,
                    "buildingKey": 328210,
                    "nameBank": "Breton",
                    "billboardArchiveIndex": 183,
                    "billboardRecordIndex": 5
                },
                "socialGroup": "Merchants",
                "buildingName": "First Class Gems"
            }
        },
        {
            "Key": 74157,
            "Value": {
                "npc": {
                    "hash": -278,
                    "flags": 33,
                    "factionID": 534,
                    "nameSeed": 74157,
                    "gender": "Female",
                    "context": "Custom",
                    "mapID": 0,
                    "locationID": 0,
                    "buildingKey": 66304,
                    "nameBank": "Breton",
                    "billboardArchiveIndex": 182,
                    "billboardRecordIndex": 12
                },
                "socialGroup": "Commoners",
                "buildingName": "The Howling Dungeon"
            }
        },
        {
            "Key": 77722,
            "Value": {
                "npc": {
                    "hash": 102,
                    "flags": 33,
                    "factionID": 534,
                    "nameSeed": 77722,
                    "gender": "Female",
                    "context": "Custom",
                    "mapID": 0,
                    "locationID": 0,
                    "buildingKey": 66305,
                    "nameBank": "Breton",
                    "billboardArchiveIndex": 184,
                    "billboardRecordIndex": 10
                },
                "socialGroup": "Commoners",
                "buildingName": "The Lion and Griffin"
            }
        },
        {
            "Key": 77429,
            "Value": {
                "npc": {
                    "hash": -288,
                    "flags": 1,
                    "factionID": 534,
                    "nameSeed": 77429,
                    "gender": "Male",
                    "context": "Custom",
                    "mapID": 0,
                    "locationID": 0,
                    "buildingKey": 66305,
                    "nameBank": "Breton",
                    "billboardArchiveIndex": 182,
                    "billboardRecordIndex": 21
                },
                "socialGroup": "Commoners",
                "buildingName": "The Lion and Griffin"
            }
        },
        {
            "Key": 141061,
            "Value": {
                "npc": {
                    "hash": 526,
                    "flags": 33,
                    "factionID": 849,
                    "nameSeed": 141061,
                    "gender": "Female",
                    "context": "Custom",
                    "mapID": 0,
                    "locationID": 0,
                    "buildingKey": 131840,
                    "nameBank": "Breton",
                    "billboardArchiveIndex": 184,
                    "billboardRecordIndex": 18
                },
                "socialGroup": "Commoners",
                "buildingName": "The Fighters Guild"
            }
        },
        {
            "Key": 152369,
            "Value": {
                "npc": {
                    "hash": -352,
                    "flags": 33,
                    "factionID": 534,
                    "nameSeed": 152369,
                    "gender": "Female",
                    "context": "Custom",
                    "mapID": 0,
                    "locationID": 0,
                    "buildingKey": 131848,
                    "nameBank": "Breton",
                    "billboardArchiveIndex": 184,
                    "billboardRecordIndex": 9
                },
                "socialGroup": "Commoners",
                "buildingName": "The Laughing Barbarian"
            }
        },
        {
            "Key": 152572,
            "Value": {
                "npc": {
                    "hash": -346,
                    "flags": 13,
                    "factionID": 510,
                    "nameSeed": 152572,
                    "gender": "Male",
                    "context": "Custom",
                    "mapID": 0,
                    "locationID": 0,
                    "buildingKey": 131848,
                    "nameBank": "Breton",
                    "billboardArchiveIndex": 182,
                    "billboardRecordIndex": 1
                },
                "socialGroup": "Merchants",
                "buildingName": "The Laughing Barbarian"
            }
        },
        {
            "Key": 214240,
            "Value": {
                "npc": {
                    "hash": -326,
                    "flags": 33,
                    "factionID": 533,
                    "nameSeed": 214240,
                    "gender": "Female",
                    "context": "Custom",
                    "mapID": 0,
                    "locationID": 0,
                    "buildingKey": 197376,
                    "nameBank": "Breton",
                    "billboardArchiveIndex": 184,
                    "billboardRecordIndex": 28
                },
                "socialGroup": "Nobility",
                "buildingName": "Palace"
            }
        },
        {
            "Key": 214225,
            "Value": {
                "npc": {
                    "hash": 782,
                    "flags": 33,
                    "factionID": 533,
                    "nameSeed": 214225,
                    "gender": "Female",
                    "context": "Custom",
                    "mapID": 0,
                    "locationID": 0,
                    "buildingKey": 197376,
                    "nameBank": "Breton",
                    "billboardArchiveIndex": 184,
                    "billboardRecordIndex": 29
                },
                "socialGroup": "Nobility",
                "buildingName": "Palace"
            }
        },
        {
            "Key": 362645,
            "Value": {
                "npc": {
                    "hash": 350,
                    "flags": 41,
                    "factionID": 534,
                    "nameSeed": 362645,
                    "gender": "Female",
                    "context": "Custom",
                    "mapID": 0,
                    "locationID": 0,
                    "buildingKey": 328458,
                    "nameBank": "Breton",
                    "billboardArchiveIndex": 182,
                    "billboardRecordIndex": 11
                },
                "socialGroup": "Commoners",
                "buildingName": "The Fox and Goblin"
            }
        },
        {
            "Key": 364384,
            "Value": {
                "npc": {
                    "hash": -278,
                    "flags": 33,
                    "factionID": 534,
                    "nameSeed": 364384,
                    "gender": "Female",
                    "context": "Custom",
                    "mapID": 0,
                    "locationID": 0,
                    "buildingKey": 328458,
                    "nameBank": "Breton",
                    "billboardArchiveIndex": 182,
                    "billboardRecordIndex": 12
                },
                "socialGroup": "Commoners",
                "buildingName": "The Fox and Goblin"
            }
        }
    ],
    "castleNPCsSpokenTo": {

    }
}